module git.arvados.org/arvados.git

go 1.13

require (
	github.com/AdRoll/goamz v0.0.0-20170825154802-2731d20f46f4
	github.com/Azure/azure-sdk-for-go v19.1.0+incompatible
	github.com/Azure/go-autorest v10.15.2+incompatible
	github.com/Microsoft/go-winio v0.4.5 // indirect
	github.com/alcortesm/tgz v0.0.0-20161220082320-9c5fe88206d7 // indirect
	github.com/anmitsu/go-shlex v0.0.0-20161002113705-648efa622239 // indirect
	github.com/aws/aws-sdk-go v1.25.30
	github.com/coreos/go-oidc v2.1.0+incompatible
	github.com/coreos/go-systemd v0.0.0-20180108085132-cc4f39464dc7
	github.com/dgrijalva/jwt-go v3.1.0+incompatible // indirect
	github.com/dimchansky/utfbom v1.0.0 // indirect
	github.com/dnaeon/go-vcr v1.0.1 // indirect
	github.com/docker/distribution v2.6.0-rc.1.0.20180105232752-277ed486c948+incompatible // indirect
	github.com/docker/docker v1.4.2-0.20180109013817-94b8a116fbf1
	github.com/docker/go-connections v0.3.0 // indirect
	github.com/docker/go-units v0.3.3-0.20171221200356-d59758554a3d // indirect
	github.com/flynn/go-shlex v0.0.0-20150515145356-3f9db97f8568 // indirect
	github.com/ghodss/yaml v1.0.0
	github.com/gliderlabs/ssh v0.2.2 // indirect
	github.com/gogo/protobuf v1.1.1
	github.com/gorilla/context v1.1.1 // indirect
	github.com/gorilla/mux v1.6.1-0.20180107155708-5bbbb5b2b572
	github.com/hashicorp/golang-lru v0.5.1
	github.com/imdario/mergo v0.3.8-0.20190415133143-5ef87b449ca7
	github.com/jbenet/go-context v0.0.0-20150711004518-d14ea06fba99 // indirect
	github.com/jmcvetta/randutil v0.0.0-20150817122601-2bb1b664bcff
	github.com/julienschmidt/httprouter v1.2.0
	github.com/kevinburke/ssh_config v0.0.0-20171013211458-802051befeb5 // indirect
	github.com/lib/pq v0.0.0-20171126050459-83612a56d3dd
	github.com/marstr/guid v1.1.1-0.20170427235115-8bdf7d1a087c // indirect
	github.com/mitchellh/go-homedir v0.0.0-20161203194507-b8bc1bf76747 // indirect
	github.com/opencontainers/go-digest v1.0.0-rc1 // indirect
	github.com/opencontainers/image-spec v1.0.1-0.20171125024018-577479e4dc27 // indirect
	github.com/pelletier/go-buffruneio v0.2.0 // indirect
	github.com/pquerna/cachecontrol v0.0.0-20180517163645-1555304b9b35 // indirect
	github.com/prometheus/client_golang v1.2.1
	github.com/prometheus/client_model v0.0.0-20190812154241-14fe0d1b01d4
	github.com/prometheus/common v0.7.0
	github.com/satori/go.uuid v1.2.1-0.20180103174451-36e9d2ebbde5 // indirect
	github.com/sergi/go-diff v1.0.0 // indirect
	github.com/sirupsen/logrus v1.4.2
	github.com/src-d/gcfg v1.3.0 // indirect
	github.com/stretchr/testify v1.4.0 // indirect
	github.com/xanzy/ssh-agent v0.1.0 // indirect
	golang.org/x/crypto v0.0.0-20190308221718-c2843e01d9a2
	golang.org/x/net v0.0.0-20190613194153-d28f0bde5980
	golang.org/x/oauth2 v0.0.0-20190604053449-0f29369cfe45
	golang.org/x/sys v0.0.0-20191105231009-c1f44814a5cd // indirect
	google.golang.org/api v0.13.0
	gopkg.in/check.v1 v1.0.0-20161208181325-20d25e280405
	gopkg.in/square/go-jose.v2 v2.3.1
	gopkg.in/src-d/go-billy.v4 v4.0.1
	gopkg.in/src-d/go-git-fixtures.v3 v3.5.0 // indirect
	gopkg.in/src-d/go-git.v4 v4.0.0
	gopkg.in/warnings.v0 v0.1.2 // indirect
	gopkg.in/yaml.v2 v2.2.4 // indirect
	rsc.io/getopt v0.0.0-20170811000552-20be20937449
)

replace github.com/AdRoll/goamz => github.com/arvados/goamz v0.0.0-20190905141525-1bba09f407ef
